[gd_scene load_steps=3 format=2]

[ext_resource path="res://scenes/player/Player.tscn" type="PackedScene" id=1]
[ext_resource path="res://scenes/maps/m0/M0.tscn" type="PackedScene" id=2]

[node name="Node2D" type="Node2D"]

[node name="Player" parent="." instance=ExtResource( 1 )]
position = Vector2( 600, 117 )

[node name="M0" parent="." instance=ExtResource( 2 )]
